…
But that code just makes it pretty. To access it in R, after loading
`gjp::` with `library(gjp)`:

``` r
 
forecasts
#> # A tibble: 448,418 x 23
#>    ifp_id q_text q_type outcome options n_opts ctt    cond training user_id
#>    <chr>  <chr>   <dbl> <chr>   <chr>    <dbl> <chr> <dbl> <chr>      <dbl>
#>  1 1004-0 Will …      0 b       (a) Ye…      2 1a        1 a            600
#>  2 1004-0 Will …      0 b       (a) Ye…      2 1a        1 a            600
#>  3 1008-0 By 31…      0 a       (a) Ye…      2 1a        1 a            600
#>  4 1008-0 By 31…      0 a       (a) Ye…      2 1a        1 a            600
#>  5 1006-0 Will …      0 b       (a) Ye…      2 1a        1 a            600
#>  6 1006-0 Will …      0 b       (a) Ye…      2 1a        1 a            600
#>  7 1003-0 Will …      0 b       (a) Ye…      2 1a        1 a            600
#>  8 1005-0 Will …      0 a       (a) Ye…      2 1a        1 a            600
#>  9 1005-0 Will …      0 a       (a) Ye…      2 1a        1 a            600
#> 10 1004-0 Will …      0 b       (a) Ye…      2 1a        1 a           2986
#> # … with 448,408 more rows, and 13 more variables: forecast_id <dbl>,
#> #   fcast_type <dbl>, answer_option <chr>, value <dbl>, fcast_date <date>,
#> #   expertise <dbl>, q_status <chr>, viewtime <dbl>, year <dbl>,
#> #   timestamp <dttm>, raw_dat_obs <int>, options_yn <lgl>,
#> #   q_conditional <dbl>
…
